{
    "id": "com.modxvm.xvm.ping",
    "name": "XVM Ping",
    "description": "XVM Ping module",

    "version": "XVM_VERSION",
    "dependencies": ["com.modxvm.xvm", "com.modxvm.xfw.actionscript"],
    "dependencies_optional": ["com.modxvm.xfw.ping"],

    "url": "https://modxvm.com/",
    "url_update": "https://modxvm.com/",

    "wot_version_min": "WOT_VERSION",
    "wot_version_exactmatch": false,

    "features": ["python"]
}
